^C:\USERS\NEVERGOD\DOCUMENTS\VISUAL STUDIO 2013\PROJECTS\SENDINGTOPROCESS\SENDINGTOPROCESS\STDAFX.CPP
C:\USERS\NEVERGOD\DOCUMENTS\VISUAL STUDIO 2013\PROJECTS\SENDINGTOPROCESS\SENDINGTOPROCESS\X64\RELEASE\SENDINGTOPROCESS.PCH
C:\USERS\NEVERGOD\DOCUMENTS\VISUAL STUDIO 2013\PROJECTS\SENDINGTOPROCESS\SENDINGTOPROCESS\X64\RELEASE\VC120.PDB
C:\USERS\NEVERGOD\DOCUMENTS\VISUAL STUDIO 2013\PROJECTS\SENDINGTOPROCESS\SENDINGTOPROCESS\X64\RELEASE\STDAFX.OBJ
^C:\USERS\NEVERGOD\DOCUMENTS\VISUAL STUDIO 2013\PROJECTS\SENDINGTOPROCESS\SENDINGTOPROCESS\SENDINGTOPROCESS.CPP
C:\USERS\NEVERGOD\DOCUMENTS\VISUAL STUDIO 2013\PROJECTS\SENDINGTOPROCESS\SENDINGTOPROCESS\X64\RELEASE\VC120.PDB
C:\USERS\NEVERGOD\DOCUMENTS\VISUAL STUDIO 2013\PROJECTS\SENDINGTOPROCESS\SENDINGTOPROCESS\X64\RELEASE\SENDINGTOPROCESS.OBJ
